{
  "params" : {
    "a" : 1.0,
    "P" : 10.0
  },
  "Truss" : {
    "bargeom" : {
      "dim" : 3,
      "coords" : [
        "a", 0.0, 0.0,
        0.0, "2*a/sqrt(3)", 0.0,
        0.0, "-2*a/sqrt(3)", 0.0,
        "a/3.0", 0.0, "0.5*a"],
      "elems" : [0,3,
                 1,3,
                 2,3],
      "sections" : {
        "sec_all" : {
          "forBars" : ["0-2"],
          "area" : 1.0,
          "material" : "mat_all"
        }
      }
    },
    "materials" : {
      "mat_all" : {
        "E" : 1.0
      }
    },
    "supports" : {
      "pin" : {
        "Tx" : "Fixed",
        "Ty" : "Fixed",
        "Tz" : "Fixed",
        "atNodes" : ["0-2"]
      }
    },
    "loads" : {
      "cases" : {
        "live_1" : {
          "nodal" : {
            "ForceZ" : {
              "Fz" : "-3*P",
              "atNodes" : [3]
            }
          }
        }
      }
    }
  }
}
